{
  "version": "1.0.0-*",

  "dependencies": {
    "Autofac.Extensions.DependencyInjection": "4.0.0",
    "AutoMapper": "5.2.0",
    "Microsoft.EntityFrameworkCore": "1.1.0",
    "Microsoft.EntityFrameworkCore.Design": "1.1.0",
    "Microsoft.EntityFrameworkCore.SqlServer": "1.1.0",
    "NETStandard.Library": "1.6.1"
  },

  "tools": {
    "Microsoft.EntityFrameworkCore.Tools.DotNet": "1.0.0-preview3-final",
    "Microsoft.AspNetCore.Razor.Tools": "1.0.0-preview2-final",
    "Microsoft.AspNetCore.Server.IISIntegration.Tools": "1.0.0-preview2-final"
  },

  "frameworks": {
    "netstandard1.6": {
      "imports": "dnxcore50"
    }
  }
}
